<?xml version="1.0" encoding="UTF-8" standalone="no"?>
<svg
   xmlns:dc="http://purl.org/dc/elements/1.1/"
   xmlns:cc="http://creativecommons.org/ns#"
   xmlns:rdf="http://www.w3.org/1999/02/22-rdf-syntax-ns#"
   xmlns:svg="http://www.w3.org/2000/svg"
   xmlns="http://www.w3.org/2000/svg"
   xmlns:sodipodi="http://sodipodi.sourceforge.net/DTD/sodipodi-0.dtd"
   xmlns:inkscape="http://www.inkscape.org/namespaces/inkscape"
   sodipodi:docname="kalinka.svg"
   inkscape:version="1.0 (4035a4fb49, 2020-05-01)"
   id="svg8"
   version="1.1"
   viewBox="0 0 67.733333 67.733333"
   height="256"
   width="256">
  <defs
     id="defs2">
    <rect
       id="rect37"
       height="87.11183"
       width="77.448882"
       y="-5.278253"
       x="-12.491849" />
    <rect
       x="6.6272948"
       y="9.7488974"
       width="43.280512"
       height="52.511376"
       id="rect57" />
    <rect
       x="56.520867"
       y="57.787032"
       width="18.472479"
       height="12.147468"
       id="rect47" />
  </defs>
  <sodipodi:namedview
     inkscape:window-maximized="1"
     inkscape:window-y="0"
     inkscape:window-x="3884"
     inkscape:window-height="2087"
     inkscape:window-width="3796"
     inkscape:pagecheckerboard="false"
     units="px"
     showgrid="true"
     inkscape:document-rotation="0"
     inkscape:current-layer="layer1"
     inkscape:document-units="px"
     inkscape:cy="59.668612"
     inkscape:cx="50.076554"
     inkscape:zoom="3.959798"
     inkscape:pageshadow="2"
     inkscape:pageopacity="0"
     borderopacity="1.0"
     bordercolor="#666666"
     pagecolor="#1f0031"
     id="base">
    <inkscape:grid
       type="xygrid"
       id="grid18" />
  </sodipodi:namedview>
  <metadata
     id="metadata5">
    <rdf:RDF>
      <cc:Work
         rdf:about="">
        <dc:format>image/svg+xml</dc:format>
        <dc:type
           rdf:resource="http://purl.org/dc/dcmitype/StillImage" />
        <dc:title />
      </cc:Work>
    </rdf:RDF>
  </metadata>
  <g
     id="layer1"
     inkscape:groupmode="layer"
     inkscape:label="Calque 1">
    <text
       xml:space="preserve"
       id="text45"
       style="font-style:normal;font-weight:normal;font-size:10.5833px;line-height:1.25;font-family:sans-serif;letter-spacing:0px;word-spacing:0px;writing-mode:vertical-lr;white-space:pre;shape-inside:url(#rect47);fill:#000000;fill-opacity:1;stroke:none;" />
    <text
       xml:space="preserve"
       id="text55"
       style="font-style:normal;font-weight:normal;font-size:10.5833px;line-height:1.25;font-family:sans-serif;letter-spacing:0px;word-spacing:0px;writing-mode:vertical-lr;white-space:pre;shape-inside:url(#rect57);fill:#000000;fill-opacity:1;stroke:none;" />
    <text
       style="font-style:normal;font-weight:normal;font-size:10.5833px;line-height:1.25;font-family:sans-serif;letter-spacing:0px;word-spacing:0px;writing-mode:vertical-lr;white-space:pre;shape-inside:url(#rect37);fill:#000000;fill-opacity:1;stroke:none;"
       id="text35"
       xml:space="preserve" />
    <rect
       y="5.291666"
       x="17.727083"
       height="56.885414"
       width="2.6458333"
       id="rect858"
       style="fill:#db5742;fill-opacity:0.992157;stroke-width:0.264583" />
    <rect
       transform="matrix(0.87566841,0.48291286,-0.72455608,0.68921585,0,0)"
       style="fill:#db5742;fill-opacity:0.992157;stroke-width:0.208577"
       id="rect858-3"
       width="2.1743073"
       height="43.017982"
       x="39.374023"
       y="-19.898302" />
    <rect
       y="-82.472664"
       x="-12.159113"
       height="43.017982"
       width="2.1743073"
       id="rect858-3-3"
       style="fill:#db5742;fill-opacity:0.992157;stroke-width:0.208577"
       transform="matrix(0.87566841,-0.48291287,-0.72455608,-0.68921585,0,0)" />
    <circle
       r="5.2916665"
       cy="5.4271541"
       cx="49.833424"
       id="path890"
       style="fill:#ff0000;fill-opacity:0.992157;stroke-width:0.264583" />
    <circle
       style="fill:#ff0000;fill-opacity:0.992157;stroke-width:0.264583"
       id="path890-3"
       cx="49.692299"
       cy="62.373726"
       r="5.2916665" />
    <circle
       style="fill:#ff0000;fill-opacity:0.992157;stroke-width:0.264583"
       id="path890-7"
       cx="19.148369"
       cy="5.428422"
       r="5.2916665" />
    <circle
       style="fill:#ff0000;fill-opacity:0.992157;stroke-width:0.264583"
       id="path890-32"
       cx="18.911995"
       cy="62.329269"
       r="5.2916665" />
  </g>
</svg>
